{
  "stockOutNotificationList.stockOutNotifications": "Stock Out Notifications",
  "stockOutNotificationList.administration": "Administration",
  "stockOutNotificationList.noMatchesForStockOutNotification": "There are no matches for stock out notifications.",
  "stockOutNotificationList.facilityNumber": "Facility Number",
  "stockOutNotificationList.facilityCode": "Facility Code",
  "stockOutNotificationList.hfrCode": "HFR Code",
  "stockOutNotificationList.facilityName": "Facility Name",
  "stockOutNotificationList.facilityType": "Facility Type",
  "stockOutNotificationList.district": "District",
  "stockOutNotificationList.region": "Region",
  "stockOutNotificationList.program": "Program",
  "stockOutNotificationList.period": "Period",
  "stockOutNotificationList.orderNumber": "Order Number",
  "stockOutNotificationList.quoteNumber": "Quote Number",
  "stockOutNotificationList.notificationDate": "Notification Date",
  "stockOutNotificationList.comment": "Comment",
  "stockOutNotificationList.actions": "Actions",
  "stockOutNotificationList.print": "Print",
  "stockOutNotificationList.search": "Search"
}
