{
  "buqSpecializationAdd.name": "Name",
  "buqSpecializationAdd.code": "Code",
  "buqSpecializationAdd.description": "Description",
  "buqSpecializationAdd.specialization": "Specialization",
  "buqSpecializationAdd.cancel": "Cancel",
  "buqSpecializationAdd.addBuqSpecialization": "Add New Specialization",
  "buqSpecializationAdd.buqSpecializationSavedSuccessfully": "Specialization saved successfully",
  "buqSpecializationAdd.buqSpecializationFailedToSave": "Failed to save specialization",
  "buqSpecializationAdd.buqSpecializationNameDuplicated": "The specialization name is duplicated",
  "buqSpecializationAdd.add": "Add",
  "buqSpecializationAdd.noMatchesForAssociatedUser": "There are no users associated with the specialization",
  "buqSpecializationAdd.actions": "Actions",
  "buqSpecializationAdd.validBuqSpecializationDuplicated": "Given user is already associated with the specialization"
}
