{
  "adminOrderableList.products": "Products",
  "adminOrderableList.code": "Code",
  "adminOrderableList.name": "Name",
  "adminOrderableList.description": "Description",
  "adminOrderableList.program": "Program",
  "adminOrderableList.search": "Search",
  "adminOrderableList.products.error": "No products found",
  "adminOrderableList.actions": "Actions",
  "adminOrderableList.edit": "Edit",
  "adminOrderableList.addProduct": "Add Product",
  "adminOrderableList.number": "#",
  "adminOrderableList.itemCode": "Item Code",
  "adminOrderableList.uom": "Uom",
  "adminOrderableList.revision": "Revision",
  "adminOrderableList.packSize": "Pack Size",
  "adminOrderableList.price": "Price",
  "adminOrderableList.accept": "Accept",
  "adminOrderableList.buqClass": "BUQ Class",
  "adminOrderableList.buqCategory": "BUQ Category"
}
